<svg width="39" height="57" viewBox="0 0 39 57" fill="none" xmlns="http://www.w3.org/2000/svg">
<path fill-rule="evenodd" clip-rule="evenodd" d="M20.7077 19.276C17.0258 15.3098 10.9551 14.8522 6.73284 18.071C6.94795 17.8331 7.17598 17.6029 7.41692 17.3814C11.6411 13.4982 18.2301 13.7592 22.1338 17.9645C26.0375 22.1697 25.7777 28.7266 21.5536 32.6098C21.3135 32.8305 21.0658 33.0378 20.8115 33.2317C24.3678 29.2978 24.3888 23.2414 20.7077 19.276Z" fill="#6FD4E1"/>
<path fill-rule="evenodd" clip-rule="evenodd" d="M23.0724 17.1025C18.1352 11.784 9.99472 11.1704 4.33293 15.4869C4.62143 15.1677 4.92726 14.859 5.25041 14.5619C10.9147 9.35484 19.75 9.70488 24.9846 15.3438C30.2192 20.9827 29.8709 29.7751 24.2066 34.9821C23.8848 35.2779 23.5528 35.5558 23.2118 35.8158C27.9803 30.5408 28.0085 22.4196 23.0724 17.1025Z" fill="#B9E7E6"/>
<path fill-rule="evenodd" clip-rule="evenodd" d="M25.9641 13.6967C20.3141 7.61046 10.9987 6.90797 4.51925 11.8468C4.84915 11.4819 5.19886 11.1289 5.56835 10.7892C12.0508 4.83009 22.1622 5.23068 28.1528 11.684C34.1434 18.1373 33.7448 28.1996 27.2623 34.1588C26.8937 34.4977 26.5133 34.816 26.1227 35.1138C31.5808 29.0769 31.6134 19.7821 25.9641 13.6967Z" fill="#6FD4E1"/>
<path fill-rule="evenodd" clip-rule="evenodd" d="M18.2817 37.7152C21.9532 41.6907 28.0221 42.1641 32.2527 38.9568C32.0371 39.194 31.8086 39.4234 31.5673 39.6441C27.3331 43.5164 20.7449 43.2384 16.852 39.0231C12.9591 34.8079 13.2358 28.2516 17.47 24.3793C17.7108 24.159 17.9592 23.9522 18.2143 23.7588C14.6475 27.6835 14.6106 33.7402 18.2817 37.7152Z" fill="#6FD4E1"/>
<path fill-rule="evenodd" clip-rule="evenodd" d="M15.9115 39.8827C20.8348 45.2137 28.9733 45.8484 34.6461 41.5471C34.3569 41.8653 34.0504 42.1731 33.7266 42.4692C28.0489 47.6617 19.2146 47.2889 13.9945 41.6365C8.77449 35.9842 9.1455 27.1927 14.8232 22.0002C15.146 21.705 15.4789 21.4278 15.8208 21.1686C11.0383 26.4313 10.989 34.5527 15.9115 39.8827Z" fill="#6FD4E1"/>
<path fill-rule="evenodd" clip-rule="evenodd" d="M13.0108 43.2811C18.6452 49.382 27.9592 50.1083 34.4514 45.1857C34.1204 45.5499 33.7696 45.9022 33.3991 46.2411C26.9013 52.1835 16.791 51.7569 10.8171 45.2881C4.84308 38.8194 5.26768 28.7581 11.7654 22.8157C12.1347 22.478 12.5157 22.1608 12.9069 21.8642C7.43367 27.887 7.37735 37.1812 13.0108 43.2811Z" fill="#6FD4E1"/>
</svg>
